{
    "defaultSeverity": "error",
    "extends": [
        "tslint:recommended"
    ],
    "jsRules": {},
    "rules": {
        "whitespace": [true, "check-module"],
        "quotemark": [true, "single"],
        "max-classes-per-file": false
    },
    "rulesDirectory": []
}